{
    "uid": "BD_GIT",
    "TRN_EVL_ID": "IDF",
    "NETWORK": "COMMERCIAL",
    "KSATs": [
        [
            "K0680",
            "B"
        ],
        [
            "T0013",
            "B"
        ],
        [
            "K0728",
            "B"
        ],
        [
            "K0729",
            "B"
        ],
        [
            "K0731",
            "B"
        ],
        [
            "K0732",
            "B"
        ],
        [
            "K0890",
            "B"
        ]
    ],
    "course": "IDF",
    "module": "IntroToGit",
    "topic": "IntroToGit",
    "subject": "IntroToGit",
    "lecture_time": 15,
    "perf_demo_time": 60,
    "references": [],
    "lesson_objectives": [
        {
            "description": "",
            "proficiency_level": "",
            "KSATs": [],
            "MSBs": []
        }
    ],
    "performance_objectives": [
        {
            "description": "",
            "KSATs": []
        }
    ],
    "workroles": [
        "basic-dev"
    ]
}